trace.vcd
$date
     Jul 02, 2024       19:35:37
$end

$version
 SystemC 2.3.4-Accellera --- May 11 2024 17:24:45
$end

$timescale
     1 ps
$end

$scope module SystemC $end
$var wire   32  aaaaa  cycles [31:0]  $end
$var wire   64  aaaab  misses [63:0]  $end
$var wire   64  aaaac  hits [63:0]  $end
$var wire   64  aaaad  gate_count [63:0]  $end
$upscope $end
$enddefinitions  $end

$comment
All initial values are dumped below at time 0 sec = 0 timescale units.
$end

$dumpvars
b0 aaaaa
b0 aaaab
b0 aaaac
b0 aaaad
$end

#102000
b1100101 aaaaa
b1 aaaab

#202000
b11001001 aaaaa

#205000
b11001010 aaaaa
b1 aaaac

#305000
b100101110 aaaaa

#408000
b110010011 aaaaa
b10 aaaab

#508000
b111110111 aaaaa

#511000
b111111000 aaaaa
b10 aaaac

#611000
b1001011100 aaaaa

#614000
b1001011101 aaaaa
b11 aaaac

#714000
b1011000001 aaaaa

