trace.vcd
$date
     Jul 02, 2024       19:42:52
$end

$version
 SystemC 2.3.4-Accellera --- May 11 2024 17:24:45
$end

$timescale
     1 ps
$end

$scope module SystemC $end
$var wire   32  aaaaa  cycles [31:0]  $end
$var wire   64  aaaab  misses [63:0]  $end
$var wire   64  aaaac  hits [63:0]  $end
$var wire   64  aaaad  gate_count [63:0]  $end
$upscope $end
$enddefinitions  $end

$comment
All initial values are dumped below at time 0 sec = 0 timescale units.
$end

$dumpvars
b0 aaaaa
b0 aaaab
b0 aaaac
b0 aaaad
$end

#101000
b1100101 aaaaa
b1 aaaab

#201000
b11001001 aaaaa

#203000
b11001010 aaaaa
b1 aaaac

#303000
b100101110 aaaaa

#405000
b110010011 aaaaa
b10 aaaab

#505000
b111110111 aaaaa

#507000
b111111000 aaaaa
b10 aaaac

#607000
b1001011100 aaaaa

#709000
b1011000001 aaaaa
b11 aaaab

#809000
b1100100101 aaaaa

